Bad plot and Good plot
…
Data Analysis

Need to make a summary table with number of births each year

# Creating a summary table of number of births per year
births_count <- births %>% #new dataset name
  group_by(year_birth) %>% #grouping data by the variable - year_birth
  summarise(Number_of_births= n()) %>% #summary table with one row per year 
  arrange(year_birth) %>% #sorts table in ascending order by birth year
  rename(Birth_year= year_birth) %>% #Changing the column name to Birth_year
  select(Birth_year, Number_of_births) #Keep only these columns

births_count #View the summary table

# A tibble: 44 × 2
   Birth_year Number_of_births
        <dbl>            <int>
 1       1468                1
 2       1528                2
 3       1572                1
 4       1576                1
 5       1640                1
 6       1692                1
 7       1724                1
 8       1736                1
 9       1792                1
10       1812                1
# ℹ 34 more rows
…
