Week 10 Homework - Functions with Long Beach Animal Shelter dataset
…
#Cleaning up the column names 
Cleaned_Up_Data <- Data %>%
  select(intake_date, animal_id, animal_type, outcome_type) %>% #selecting the ones I want and also the order I want the columns
  drop_na(intake_date, animal_type, outcome_type, animal_id)%>% #making sure to drop the NAs if there is some
  mutate( #Making the column names good
    animal_type = str_to_title(str_trim(animal_type)), #Capitalizes the first letter of each word then removes any extra spaces at the start or end of each one
    outcome_type = str_to_title(str_trim(outcome_type)) #Capitalizes the first letter of each word then removes any extra spaces at the start or end of each one
   ) %>% 
  filter(outcome_type %in% c("Adoption", "Rescue", "Transfer", "Euthanasia", "Return To Owner")) %>%  #Only keeping these cause they make the most sense and it is enough data with only these
  rename( `Animal Species` = animal_type, `Outcome Associated with Animal` = outcome_type, `Intake Date` = intake_date, `Animal ID` = animal_id ) #putting clearer names

Cleaned_Up_Data

# A tibble: 26,504 × 4
   `Intake Date` `Animal ID` `Animal Species` `Outcome Associated with Animal`
   <date>        <chr>       <chr>            <chr>                           
 1 2023-02-20    A693708     Dog              Euthanasia                      
 2 2023-10-03    A708149     Reptile          Rescue                          
 3 2020-01-01    A638068     Bird             Euthanasia                      
 4 2020-02-02    A639310     Bird             Transfer                        
 5 2018-12-18    A618968     Cat              Rescue                          
 6 2024-10-18    A730385     Rabbit           Adoption                        
 7 2020-07-25    A646202     Bird             Euthanasia                      
 8 2019-06-12    A628138     Other            Rescue                          
 9 2017-09-21    A597464     Cat              Rescue                          
10 2024-12-15    A734321     Dog              Rescue                          
# ℹ 26,494 more rows
…
